{
  "images" : [
    {
      "idiom" : "universal",
      "filename" : "camera-icon.png",
      "alignment-insets" : {
        "top" : 10,
        "left" : 10,
        "bottom" : 0,
        "right" : 0
      }
    }
  ],
  "info" : {
    "version" : 1,
    "author" : "xcode"
  }
}